3jsanimated_Sprites
3jscamera
3jscameraRotate
3jsclick
3jscollision
3jscone
3jscube
3jscubeTextured
3jscylinder
3jsdae
3jselected
3jsmaterials
3jsplane
3jsrenderer
3jssphere
3jssprite
3jswindow_resize
btalert_danger
btalert_info
btalert_success
btalert_warning
btb
btbb
btbcon
btcard
btcarousel
btcheckbox
btcheckboxcolors
btcollapse
btdropdownSearch
btfooter_sticky
btimagegrid
btimgcircle
btimgcorner
btinput
btlist
btmedia
btmedianested
btmodal
btnav
btnav_sticky
btpassword
btprogessbar
bttable
btthumbnail
btwell
byclass
byid
bytag
cssbtn
cssbtngreen
cssbtnred
filterlist
gcccolor
gccdir
gccenterToContinue
gcchello
gccinput
gccreadfile
gccwritefile
gccyn
gpl3_header
hbtn
hdiv
hdrop
hflex
hh1
hinput
htmlbtn
htmldrop
htmlflex
htmlinput
htmlscript
jqcl
jqlist
jqmodaltoggle
jqpost
jsarrayloop
jscheckboxes
jsdropdownSearch
jsexist
jsfun
jsget
jskeydown
jskeyup
jspost
jsrandomArray
jsrandomString
jsselectElement
jssrc
phpgetform
phpinclude
phpredirect
pjsbackgroundcolor
pjscameraFollow
pjsclick
pjscollide
pjsfade
pjsfollowmouse
pjsgravity
pjskeys
pjsloadimage
pjsloadMap
pjsmousedown
pjspaint1
pjsphysics
pjssprite
pjsspriteAnimation
pydownloadFile
pydownloadText
pyhead
rarray
sharray
sharrayrandom
shcgi
shcheck_deps
shcolor
shgetopts
shifcontains
shselect
shsudo
ulist
urlhas
wq
Wq
